<?xml version="1.0" encoding="UTF-8" standalone="no"?>
<!-- Created with Inkscape (http://www.inkscape.org/) -->

<svg
   width="148.16708mm"
   height="116.417mm"
   viewBox="0 0 148.16708 116.417"
   version="1.1"
   id="svg1596"
   inkscape:version="1.1.2 (0a00cf5339, 2022-02-04, custom)"
   sodipodi:docname="Logo.svg"
   xmlns:inkscape="http://www.inkscape.org/namespaces/inkscape"
   xmlns:sodipodi="http://sodipodi.sourceforge.net/DTD/sodipodi-0.dtd"
   xmlns="http://www.w3.org/2000/svg"
   xmlns:svg="http://www.w3.org/2000/svg">
  <sodipodi:namedview
     id="namedview1598"
     pagecolor="#ffffff"
     bordercolor="#666666"
     borderopacity="1.0"
     inkscape:pageshadow="2"
     inkscape:pageopacity="0.0"
     inkscape:pagecheckerboard="0"
     inkscape:document-units="mm"
     showgrid="false"
     inkscape:zoom="0.64052329"
     inkscape:cx="537.84149"
     inkscape:cy="238.08658"
     inkscape:window-width="1050"
     inkscape:window-height="1048"
     inkscape:window-x="0"
     inkscape:window-y="26"
     inkscape:window-maximized="1"
     inkscape:current-layer="layer1" />
  <defs
     id="defs1593" />
  <g
     inkscape:label="Layer 1"
     inkscape:groupmode="layer"
     id="layer1"
     transform="translate(-30.424326,-83.062884)">
    <g
       id="g11565"
       transform="matrix(-0.26458409,0,0,-0.26458409,718.34296,834.4817)"
       style="stroke-width:0.999998">
      <path
         id="path11557"
         style="fill:#b7906a;fill-opacity:1;stroke:none;stroke-width:0.999998px;stroke-linecap:butt;stroke-linejoin:miter;stroke-opacity:1"
         d="m 2040,2560 v 40 h 480 c 10.6088,-5e-4 20.7834,4.2135 28.2852,11.7148 7.5013,7.5018 11.7153,17.6764 11.7148,28.2852 v 120 c 5e-4,10.6088 -4.2135,20.7834 -11.7148,28.2852 -7.5018,7.5013 -17.6764,11.7153 -28.2852,11.7148 h -240 c -10.6088,5e-4 -20.7834,-4.2135 -28.2852,-11.7148 -7.5013,-7.5018 -11.7153,-17.6764 -11.7148,-28.2852 v -40 h -40 v 40 c 0,21.2173 8.4287,41.5655 23.4316,56.5684 15.0029,15.0029 35.3511,23.4315 56.5684,23.4316 h 240 c 21.2173,-1e-4 41.5655,-8.4287 56.5684,-23.4316 C 2591.5713,2801.5655 2600,2781.2173 2600,2760 v -120 c 0,-21.2173 -8.4287,-41.5655 -23.4316,-56.5684 C 2561.5655,2568.4287 2541.2173,2560.0001 2520,2560 Z"
         sodipodi:nodetypes="cccsccsccscccssccsssscc" />
      <rect
         style="fill:#b7906a;fill-opacity:1;stroke:none;stroke-width:0.999998;stroke-linecap:round;stroke-linejoin:round"
         id="rect11559"
         width="40"
         height="40"
         x="2200"
         y="2640" />
      <rect
         style="fill:#b7906a;fill-opacity:1;stroke:none;stroke-width:0.999998;stroke-linecap:round;stroke-linejoin:round"
         id="rect11561"
         width="40"
         height="40"
         x="2200"
         y="2480" />
      <rect
         style="fill:#b7906a;fill-opacity:1;stroke:none;stroke-width:0.999998;stroke-linecap:round;stroke-linejoin:round"
         id="rect11563"
         width="40"
         height="40"
         x="2200"
         y="2400" />
    </g>
  </g>
</svg>
